Count,Message,Traceback,Nodes
520,Expecting value: line 1 column 1 (char 0),"  File ""/home/daniel.nobusada/Documentos/venv/lib/python3.6/site-packages/locust/core.py"", line 361, in run
  File ""/home/daniel.nobusada/Documentos/venv/lib/python3.6/site-packages/locust/core.py"", line 387, in execute_next_task
  File ""/home/daniel.nobusada/Documentos/venv/lib/python3.6/site-packages/locust/core.py"", line 399, in execute_task
  File ""/home/daniel.nobusada/Documentos/projetos/deabo/bitbucket/spring-statemachine-r2dbc-postgres/locustfile.py"", line 88, in step1
  File ""/home/daniel.nobusada/Documentos/projetos/deabo/bitbucket/spring-statemachine-r2dbc-postgres/locustfile.py"", line 23, in create_order
  File ""/usr/lib/python3.6/json/__init__.py"", line 354, in loads
  File ""/usr/lib/python3.6/json/decoder.py"", line 339, in decode
  File ""/usr/lib/python3.6/json/decoder.py"", line 357, in raw_decode
",local
